<svg xmlns="http://www.w3.org/2000/svg" viewBox="0 0 100 20">
<defs><style>.svg--fill{fill: #fff;}</style></defs>
  <g class="svg--fill">
    <rect width="100" height="20" style="fill: none"/>
    <polygon points="100 19.68 0 19.68 0 15.52 87.07 15.52 70.59 3.7 73.01 0.32 100 19.68"/>
  </g>
</svg>
