<svg xmlns="http://www.w3.org/2000/svg" viewBox="0 0 30 30">
<defs><style>.svg--fill{fill: #fff;}</style></defs>
  <rect width="30" height="30" style="fill: none"/>
  <g class="svg--fill">
    <path d="M29.64,5.92a12.18,12.18,0,0,1-3.45.94,6,6,0,0,0,2.65-3.32A12.14,12.14,0,0,1,25,5a6,6,0,0,0-10.24,5.48A17,17,0,0,1,2.4,4.21a6,6,0,0,0,1.86,8,5.88,5.88,0,0,1-2.72-.76v.08a6,6,0,0,0,4.82,5.89,5.92,5.92,0,0,1-2.71.11,6,6,0,0,0,5.6,4.17A12,12,0,0,1,1.8,24.28,11.58,11.58,0,0,1,.36,24.2a17,17,0,0,0,9.21,2.7c11.05,0,17.09-9.15,17.09-17.09V9A12,12,0,0,0,29.64,5.92Z"/>
  </g>
</svg>
